organismType	organismValue	organismDetected	organismCleaned	organismCleanedId	organismCleanedRank	organismDbTaxo	organismTaxonRanks	organismTaxonomy	organism_1_kingdom	organism_2_phylum	organism_3_class	organism_4_order	organism_5_family	organism_6_genus	organism_7_species	organism_8_variety
dirty	Green bell pepper	Capsicum annuum var. annuum	Capsicum annuum var. annuum	433488	variety	Open Tree of Life	no rank|no rank|domain|kingdom|kingdom|phylum|no rank|phylum|no rank|no rank|class|no rank|no rank|no rank|no rank|no rank|no rank|order|family|subfamily|tribe|genus|species|variety	||Eukaryota|Archaeplastida|Chloroplastida|Streptophyta|Embryophyta|Tracheophyta|Euphyllophyta|Spermatophyta|Magnoliopsida|Mesangiospermae||Gunneridae|Pentapetalae|||Solanales|Solanaceae|Solanoideae|Capsiceae|Capsicum|Capsicum annuum|Capsicum annuum annuum	Chloroplastida	Tracheophyta	Magnoliopsida	Solanales	Solanaceae	Capsicum	Capsicum annuum	Capsicum annuum annuum
dirty	Green bell pepper	Capsicum annuum var. annuum	Capsicum annuum var. annuum	40321	variety	NCBI	|superkingdom|kingdom|phylum|subphylum|clade|clade|clade|clade|class|clade|clade|clade|clade|clade|clade|order|family|subfamily|tribe|genus|species|variety	|Eukaryota|Viridiplantae|Streptophyta|Streptophytina|Embryophyta|Tracheophyta|Euphyllophyta|Spermatophyta|Magnoliopsida|Mesangiospermae||Gunneridae|Pentapetalae|||Solanales|Solanaceae|Solanoideae|Capsiceae|Capsicum|Capsicum annuum|Capsicum annuum annuum	Viridiplantae	Streptophyta	Magnoliopsida	Solanales	Solanaceae	Capsicum	Capsicum annuum	Capsicum annuum annuum
dirty	Green bell pepper	Capsicum annuum var. annuum	Capsicum annuum var. annuum	7258980	variety	GBIF Backbone Taxonomy	kingdom|phylum|class|order|family|genus|species|variety	Plantae|Tracheophyta|Magnoliopsida|Solanales|Solanaceae|Capsicum|Capsicum annuum|Capsicum annuum annuum	Plantae	Tracheophyta	Magnoliopsida	Solanales	Solanaceae	Capsicum	Capsicum annuum	Capsicum annuum annuum
dirty	Green bell pepper	Capsicum annuum var. annuum	Capsicum annuum var. annuum	527044	variety	ITIS	kingdom|subkingdom|infrakingdom|superdivision|division|subdivision|class|superorder|order|family|genus|species|variety	Plantae|Viridiplantae|Streptophyta|Embryophyta|Tracheophyta|Spermatophytina|Magnoliopsida|Asteranae|Solanales|Solanaceae|Capsicum|Capsicum annuum|Capsicum annuum annuum	Plantae	NA	Magnoliopsida	Solanales	Solanaceae	Capsicum	Capsicum annuum	Capsicum annuum annuum
dirty	Green bell pepper	Capsicum annuum var. annuum	Capsicum annuum annuum	239733	variety	iNaturalist	kingdom|phylum|class|order|family|genus|variety	Plantae|Tracheophyta|Magnoliopsida|Solanales|Solanaceae|Capsicum|Capsicum annuum annuum	Plantae	Tracheophyta	Magnoliopsida	Solanales	Solanaceae	Capsicum	NA	Capsicum annuum annuum
dirty	Green bell pepper	Capsicum annuum subsp. annuum	Capsicum annuum var. annuum	433488	variety	Open Tree of Life	no rank|no rank|domain|kingdom|kingdom|phylum|no rank|phylum|no rank|no rank|class|no rank|no rank|no rank|no rank|no rank|no rank|order|family|subfamily|tribe|genus|species|variety	||Eukaryota|Archaeplastida|Chloroplastida|Streptophyta|Embryophyta|Tracheophyta|Euphyllophyta|Spermatophyta|Magnoliopsida|Mesangiospermae||Gunneridae|Pentapetalae|||Solanales|Solanaceae|Solanoideae|Capsiceae|Capsicum|Capsicum annuum|Capsicum annuum annuum	Chloroplastida	Tracheophyta	Magnoliopsida	Solanales	Solanaceae	Capsicum	Capsicum annuum	Capsicum annuum annuum
dirty	Green bell pepper	Capsicum annuum subsp. annuum	Capsicum annuum var. annuum	527044	variety	ITIS	kingdom|subkingdom|infrakingdom|superdivision|division|subdivision|class|superorder|order|family|genus|species|variety	Plantae|Viridiplantae|Streptophyta|Embryophyta|Tracheophyta|Spermatophytina|Magnoliopsida|Asteranae|Solanales|Solanaceae|Capsicum|Capsicum annuum|Capsicum annuum annuum	Plantae	NA	Magnoliopsida	Solanales	Solanaceae	Capsicum	Capsicum annuum	Capsicum annuum annuum
dirty	Green bell pepper	Capsicum annuum subsp. annuum	Capsicum annuum var. annuum	40321	variety	NCBI	|superkingdom|kingdom|phylum|subphylum|clade|clade|clade|clade|class|clade|clade|clade|clade|clade|clade|order|family|subfamily|tribe|genus|species|variety	|Eukaryota|Viridiplantae|Streptophyta|Streptophytina|Embryophyta|Tracheophyta|Euphyllophyta|Spermatophyta|Magnoliopsida|Mesangiospermae||Gunneridae|Pentapetalae|||Solanales|Solanaceae|Solanoideae|Capsiceae|Capsicum|Capsicum annuum|Capsicum annuum annuum	Viridiplantae	Streptophyta	Magnoliopsida	Solanales	Solanaceae	Capsicum	Capsicum annuum	Capsicum annuum annuum
dirty	Green bell pepper	Capsicum annuum subsp. annuum	Capsicum annuum annuum	239733	variety	iNaturalist	kingdom|phylum|class|order|family|genus|variety	Plantae|Tracheophyta|Magnoliopsida|Solanales|Solanaceae|Capsicum|Capsicum annuum annuum	Plantae	Tracheophyta	Magnoliopsida	Solanales	Solanaceae	Capsicum	NA	Capsicum annuum annuum
dirty	Green bell pepper	Capsicum annuum subsp. annuum	Capsicum annuum subsp. annuum	7299552	subspecies	GBIF Backbone Taxonomy	kingdom|phylum|class|order|family|genus|species|subspecies	Plantae|Tracheophyta|Magnoliopsida|Solanales|Solanaceae|Capsicum|Capsicum annuum|Capsicum annuum annuum	Plantae	Tracheophyta	Magnoliopsida	Solanales	Solanaceae	Capsicum	Capsicum annuum	NA
clean	Callichroma iris	Callichroma iris	Callichroma iris	8169699	species	GBIF Backbone Taxonomy	kingdom|phylum|class|order|family|genus|species	Animalia|Arthropoda|Insecta|Coleoptera|Cerambycidae|Callichroma|Callichroma iris	Animalia	Arthropoda	Insecta	Coleoptera	Cerambycidae	Callichroma	Callichroma iris	NA
clean	Callichroma iris	Callichroma iris	Callichroma iris	3392940	species	Open Tree of Life	no rank|no rank|domain|no rank|no rank|kingdom|no rank|no rank|no rank|no rank|no rank|phylum|no rank|no rank|subphylum|class|no rank|subclass|infraclass|cohort|order|suborder|infraorder|superfamily|family|genus|species	||Eukaryota|Opisthokonta|Holozoa|Metazoa|Eumetazoa|Bilateria|Protostomia|Ecdysozoa|Panarthropoda|Arthropoda|Mandibulata|Pancrustacea|Hexapoda|Insecta|Dicondylia|Pterygota|Neoptera|Holometabola|Coleoptera|Polyphaga|Cucujiformia|Chrysomeloidea|Cerambycidae|Callichroma|Callichroma iris	Metazoa	Arthropoda	Insecta	Coleoptera	Cerambycidae	Callichroma	Callichroma iris	NA
clean	Iris pallida	Iris pallida	Iris pallida	5298086	species	GBIF Backbone Taxonomy	kingdom|phylum|class|order|family|genus|species	Plantae|Tracheophyta|Liliopsida|Asparagales|Iridaceae|Iris|Iris pallida	Plantae	Tracheophyta	Liliopsida	Asparagales	Iridaceae	Iris	Iris pallida	NA
clean	Iris pallida	Iris pallida	Iris pallida	43223	species	ITIS	kingdom|subkingdom|infrakingdom|superdivision|division|subdivision|class|superorder|order|family|genus|species	Plantae|Viridiplantae|Streptophyta|Embryophyta|Tracheophyta|Spermatophytina|Magnoliopsida|Lilianae|Asparagales|Iridaceae|Iris|Iris pallida	Plantae	NA	Magnoliopsida	Asparagales	Iridaceae	Iris	Iris pallida	NA
clean	Iris pallida	Iris pallida	Iris pallida	259588	species	Open Tree of Life	no rank|no rank|domain|kingdom|kingdom|phylum|no rank|phylum|no rank|no rank|class|no rank|class|subclass|order|family|subfamily|tribe|genus|species	||Eukaryota|Archaeplastida|Chloroplastida|Streptophyta|Embryophyta|Tracheophyta|Euphyllophyta|Spermatophyta|Magnoliopsida|Mesangiospermae|Liliopsida|Petrosaviidae|Asparagales|Iridaceae|Iridoideae|Irideae|Iris|Iris pallida	Chloroplastida	Tracheophyta	Liliopsida	Asparagales	Iridaceae	Iris	Iris pallida	NA
clean	Iris pallida	Iris pallida	Iris pallida	164131	species	iNaturalist	kingdom|phylum|class|order|family|genus|species	Plantae|Tracheophyta|Liliopsida|Asparagales|Iridaceae|Iris|Iris pallida	Plantae	Tracheophyta	Liliopsida	Asparagales	Iridaceae	Iris	Iris pallida	NA
clean	Iris pallida	Iris pallida	Iris pallida	6182	species	VASCAN	class|subclass|superorder|order|family|subfamily|tribe|genus|subgenus|species	Equisetopsida|Magnoliidae|Lilianae|Asparagales|Iridaceae|Iridoideae|Irideae|Iris|Iris subgenus|Iris pallida	NA	NA	Equisetopsida	Asparagales	Iridaceae	Iris	Iris pallida	NA
clean	Iris pallida	Iris pallida	Iris pallida	29817	species	NCBI	|superkingdom|kingdom|phylum|subphylum|clade|clade|clade|clade|class|clade|clade|subclass|order|family|subfamily|tribe|genus|species	|Eukaryota|Viridiplantae|Streptophyta|Streptophytina|Embryophyta|Tracheophyta|Euphyllophyta|Spermatophyta|Magnoliopsida|Mesangiospermae|Liliopsida|Petrosaviidae|Asparagales|Iridaceae|Iridoideae|Irideae|Iris|Iris pallida	Viridiplantae	Streptophyta	Magnoliopsida	Asparagales	Iridaceae	Iris	Iris pallida	NA
clean	Iris hybr	Iris hybr	Iris hybr	3998423	species	Open Tree of Life	no rank|no rank|domain|kingdom|kingdom|phylum|no rank|phylum|no rank|no rank|class|no rank|class|subclass|order|family|subfamily|tribe|genus|species	||Eukaryota|Archaeplastida|Chloroplastida|Streptophyta|Embryophyta|Tracheophyta|Euphyllophyta|Spermatophyta|Magnoliopsida|Mesangiospermae|Liliopsida|Petrosaviidae|Asparagales|Iridaceae|Iridoideae|Irideae|Iris|Iris hybr	Chloroplastida	Tracheophyta	Liliopsida	Asparagales	Iridaceae	Iris	Iris hybr	NA
clean	Iris hybr	Iris hybr	Iris hybr	6709112	species	GBIF Backbone Taxonomy	kingdom|phylum|class|order|family|genus|species	Plantae|Tracheophyta|Liliopsida|Asparagales|Iridaceae|Iris|Iris hybr	Plantae	Tracheophyta	Liliopsida	Asparagales	Iridaceae	Iris	Iris hybr	NA
clean	Iris florentina	Iris florentina	Iris florentina	6013858	species	Open Tree of Life	no rank|no rank|domain|kingdom|kingdom|phylum|no rank|phylum|no rank|no rank|class|no rank|class|subclass|order|family|subfamily|tribe|genus|species	||Eukaryota|Archaeplastida|Chloroplastida|Streptophyta|Embryophyta|Tracheophyta|Euphyllophyta|Spermatophyta|Magnoliopsida|Mesangiospermae|Liliopsida|Petrosaviidae|Asparagales|Iridaceae|Iridoideae|Irideae|Iris|Iris florentina	Chloroplastida	Tracheophyta	Liliopsida	Asparagales	Iridaceae	Iris	Iris florentina	NA
clean	Iris florentina	Iris florentina	Iris florentina	9117111	species	GBIF Backbone Taxonomy	kingdom|phylum|class|order|family|genus|species	Plantae|Tracheophyta|Liliopsida|Asparagales|Iridaceae|Iris|Iris florentina	Plantae	Tracheophyta	Liliopsida	Asparagales	Iridaceae	Iris	Iris florentina	NA
clean	Iris florentina	Iris florentina	Iris germanica	43207	species	ITIS	kingdom|subkingdom|infrakingdom|superdivision|division|subdivision|class|superorder|order|family|genus|species	Plantae|Viridiplantae|Streptophyta|Embryophyta|Tracheophyta|Spermatophytina|Magnoliopsida|Lilianae|Asparagales|Iridaceae|Iris|Iris germanica	Plantae	NA	Magnoliopsida	Asparagales	Iridaceae	Iris	Iris germanica	NA
clean	Iris florentina	Iris germanica	Iris germanica	57097	species	iNaturalist	kingdom|phylum|class|order|family|genus|species	Plantae|Tracheophyta|Liliopsida|Asparagales|Iridaceae|Iris|Iris germanica	Plantae	Tracheophyta	Liliopsida	Asparagales	Iridaceae	Iris	Iris germanica	NA
clean	Iris florentina	Iris germanica	Iris germanica	6177	species	VASCAN	class|subclass|superorder|order|family|subfamily|tribe|genus|subgenus|species	Equisetopsida|Magnoliidae|Lilianae|Asparagales|Iridaceae|Iridoideae|Irideae|Iris|Iris subgenus|Iris germanica	NA	NA	Equisetopsida	Asparagales	Iridaceae	Iris	Iris germanica	NA
clean	Iris florentina	Iris germanica	Iris germanica	34205	species	NCBI	|superkingdom|kingdom|phylum|subphylum|clade|clade|clade|clade|class|clade|clade|subclass|order|family|subfamily|tribe|genus|species	|Eukaryota|Viridiplantae|Streptophyta|Streptophytina|Embryophyta|Tracheophyta|Euphyllophyta|Spermatophyta|Magnoliopsida|Mesangiospermae|Liliopsida|Petrosaviidae|Asparagales|Iridaceae|Iridoideae|Irideae|Iris|Iris germanica	Viridiplantae	Streptophyta	Magnoliopsida	Asparagales	Iridaceae	Iris	Iris germanica	NA
clean	Iris florentina	Iris germanica	Iris germanica	7890837	species	GBIF Backbone Taxonomy	kingdom|phylum|class|order|family|genus|species	Plantae|Tracheophyta|Liliopsida|Asparagales|Iridaceae|Iris|Iris germanica	Plantae	Tracheophyta	Liliopsida	Asparagales	Iridaceae	Iris	Iris germanica	NA
clean	Iris florentina	Iris germanica	Iris germanica	43207	species	ITIS	kingdom|subkingdom|infrakingdom|superdivision|division|subdivision|class|superorder|order|family|genus|species	Plantae|Viridiplantae|Streptophyta|Embryophyta|Tracheophyta|Spermatophytina|Magnoliopsida|Lilianae|Asparagales|Iridaceae|Iris|Iris germanica	Plantae	NA	Magnoliopsida	Asparagales	Iridaceae	Iris	Iris germanica	NA
clean	Iris florentina	Iris germanica	Iris germanica	3998436	species	Open Tree of Life	no rank|no rank|domain|kingdom|kingdom|phylum|no rank|phylum|no rank|no rank|class|no rank|class|subclass|order|family|subfamily|tribe|genus|species	||Eukaryota|Archaeplastida|Chloroplastida|Streptophyta|Embryophyta|Tracheophyta|Euphyllophyta|Spermatophyta|Magnoliopsida|Mesangiospermae|Liliopsida|Petrosaviidae|Asparagales|Iridaceae|Iridoideae|Irideae|Iris|Iris germanica	Chloroplastida	Tracheophyta	Liliopsida	Asparagales	Iridaceae	Iris	Iris germanica	NA
clean	Iris florentina	Iris × germanica nothovar. florentina	Iris germanica	5298069	species	GBIF Backbone Taxonomy	kingdom|phylum|class|order|family|genus|species	Plantae|Tracheophyta|Liliopsida|Asparagales|Iridaceae|Iris|Iris germanica	Plantae	Tracheophyta	Liliopsida	Asparagales	Iridaceae	Iris	Iris germanica	NA
clean	Iris florentina	Iris × germanica nothovar. florentina	Iris germanica	43207	species	ITIS	kingdom|subkingdom|infrakingdom|superdivision|division|subdivision|class|superorder|order|family|genus|species	Plantae|Viridiplantae|Streptophyta|Embryophyta|Tracheophyta|Spermatophytina|Magnoliopsida|Lilianae|Asparagales|Iridaceae|Iris|Iris germanica	Plantae	NA	Magnoliopsida	Asparagales	Iridaceae	Iris	Iris germanica	NA
clean	Iris persiminima	Iris persiminima	Iris persiminima	5048431	species	GBIF Backbone Taxonomy	kingdom|phylum|class|order|family|genus|species	Animalia|Arthropoda|Insecta|Mantodea|Tarachodidae|Iris|Iris persiminima	Animalia	Arthropoda	Insecta	Mantodea	Tarachodidae	Iris	Iris persiminima	NA
clean	Iris persiminima	Iris persiminima	Iris persiminima	4177671	species	Open Tree of Life	no rank|no rank|domain|no rank|no rank|kingdom|no rank|no rank|no rank|no rank|no rank|phylum|no rank|no rank|subphylum|class|no rank|subclass|infraclass|cohort|genus|order|family|subfamily|genus|species	||Eukaryota|Opisthokonta|Holozoa|Metazoa|Eumetazoa|Bilateria|Protostomia|Ecdysozoa|Panarthropoda|Arthropoda|Mandibulata|Pancrustacea|Hexapoda|Insecta|Dicondylia|Pterygota|Neoptera|Polyneoptera|Dictyoptera|Mantodea|Tarachodidae|Tarachodinae|Iris|Iris persiminima	Metazoa	Arthropoda	Insecta	Mantodea	Tarachodidae	Iris	Iris persiminima	NA
clean	Ficus variegata	Ficus variegata	Ficus variegata	1030158	species	NCBI	|superkingdom|clade|kingdom|clade|clade|clade|clade|clade|phylum|class|subclass|order|superfamily|family|genus|species	|Eukaryota|Opisthokonta|Metazoa|Eumetazoa|Bilateria|Protostomia|Spiralia|Lophotrochozoa|Mollusca|Gastropoda|Caenogastropoda|Littorinimorpha|Tonnoidea|Ficidae|Ficus|Ficus variegata	Metazoa	Mollusca	Gastropoda	Littorinimorpha	Ficidae	Ficus	Ficus variegata	NA
clean	Ficus variegata	Ficus variegata	Ficus variegata	1050104	species	Open Tree of Life	no rank|no rank|domain|kingdom|kingdom|phylum|no rank|phylum|no rank|no rank|class|no rank|no rank|no rank|no rank|no rank|no rank|order|family|genus|species	||Eukaryota|Archaeplastida|Chloroplastida|Streptophyta|Embryophyta|Tracheophyta|Euphyllophyta|Spermatophyta|Magnoliopsida|Mesangiospermae||Gunneridae|Pentapetalae|||Rosales|Moraceae|Ficus|Ficus variegata	Chloroplastida	Tracheophyta	Magnoliopsida	Rosales	Moraceae	Ficus	Ficus variegata	NA
clean	Ficus variegata	Ficus variegata	Ficus variegata	9726071	species	GBIF Backbone Taxonomy	kingdom|phylum|class|order|family|genus|species	Animalia|Mollusca|Gastropoda|Littorinimorpha|Ficidae|Ficus|Ficus variegata	Animalia	Mollusca	Gastropoda	Littorinimorpha	Ficidae	Ficus	Ficus variegata	NA
clean	Ficus variegata	Ficus variegata	Ficus variegata	343952	species	iNaturalist	kingdom|phylum|class|order|family|genus|species	Plantae|Tracheophyta|Magnoliopsida|Rosales|Moraceae|Ficus|Ficus variegata	Plantae	Tracheophyta	Magnoliopsida	Rosales	Moraceae	Ficus	Ficus variegata	NA
clean	Kiwi canterberus	Kiwi canterberus	Kiwi canterberus	10497691	species	GBIF Backbone Taxonomy	kingdom|phylum|class|order|family|genus|species	Animalia|Chordata|Aves|Apterygiformes|Apterygidae|Apteryx|Kiwi canterberus	Animalia	Chordata	Aves	Apterygiformes	Apterygidae	Apteryx	Kiwi canterberus	NA
clean	Rice	Oryza sativa	Oryza sativa	41976	species	ITIS	kingdom|subkingdom|infrakingdom|superdivision|division|subdivision|class|superorder|order|family|genus|species	Plantae|Viridiplantae|Streptophyta|Embryophyta|Tracheophyta|Spermatophytina|Magnoliopsida|Lilianae|Poales|Poaceae|Oryza|Oryza sativa	Plantae	NA	Magnoliopsida	Poales	Poaceae	Oryza	Oryza sativa	NA
clean	Rice	Oryza sativa	Oryza sativa	2703459	species	GBIF Backbone Taxonomy	kingdom|phylum|class|order|family|genus|species	Plantae|Tracheophyta|Liliopsida|Poales|Poaceae|Oryza|Oryza sativa	Plantae	Tracheophyta	Liliopsida	Poales	Poaceae	Oryza	Oryza sativa	NA
clean	Lecidea piperis	Lecidea piperis	Malmidea piperis	6755210	species	GBIF Backbone Taxonomy	kingdom|phylum|class|order|family|genus|species	Fungi|Ascomycota|Lecanoromycetes|Lecanorales|Malmideaceae|Malmidea|Malmidea piperis	Fungi	Ascomycota	Lecanoromycetes	Lecanorales	Malmideaceae	Malmidea	Malmidea piperis	NA
clean	Lecidea piperis	Lecidea piperis	Malmidea piperis	547086	species	Index Fungorum	kingdom|phylum|class|order|family|species	Fungi|Ascomycota|Lecanoromycetes|Lecanorales|Malmideaceae|Malmidea piperis	Fungi	Ascomycota	Lecanoromycetes	Lecanorales	Malmideaceae	NA	Malmidea piperis	NA
clean	Lecidea piperis	Malmidea piperis	Malmidea piperis	905837	species	NCBI	|superkingdom|clade|kingdom|subkingdom|phylum|clade|subphylum|clade|class|clade|subclass|order|suborder|family|genus|species	|Eukaryota|Opisthokonta|Fungi|Dikarya|Ascomycota||Pezizomycotina||Lecanoromycetes||Lecanoromycetidae|Lecanorales|Lecanorineae|Malmideaceae|Malmidea|Malmidea piperis	Fungi	Ascomycota	Lecanoromycetes	Lecanorales	Malmideaceae	Malmidea	Malmidea piperis	NA
clean	Lecidea piperis	Malmidea piperis	Malmidea piperis	6755210	species	GBIF Backbone Taxonomy	kingdom|phylum|class|order|family|genus|species	Fungi|Ascomycota|Lecanoromycetes|Lecanorales|Malmideaceae|Malmidea|Malmidea piperis	Fungi	Ascomycota	Lecanoromycetes	Lecanorales	Malmideaceae	Malmidea	Malmidea piperis	NA
clean	Lecidea piperis	Malmidea piperis	Malmidea piperis	547086	species	Index Fungorum	kingdom|phylum|class|order|family|species	Fungi|Ascomycota|Lecanoromycetes|Lecanorales|Malmideaceae|Malmidea piperis	Fungi	Ascomycota	Lecanoromycetes	Lecanorales	Malmideaceae	NA	Malmidea piperis	NA
clean	Radix Piperis longi	Piper longum	Piper longum	49511	species	NCBI	|superkingdom|kingdom|phylum|subphylum|clade|clade|clade|clade|class|clade|clade|order|family|genus|species	|Eukaryota|Viridiplantae|Streptophyta|Streptophytina|Embryophyta|Tracheophyta|Euphyllophyta|Spermatophyta|Magnoliopsida|Mesangiospermae|Magnoliidae|Piperales|Piperaceae|Piper|Piper longum	Viridiplantae	Streptophyta	Magnoliopsida	Piperales	Piperaceae	Piper	Piper longum	NA
clean	Radix Piperis longi	Piper longum	Piper longum	506524	species	ITIS	kingdom|subkingdom|infrakingdom|superdivision|division|subdivision|class|superorder|order|family|genus|species	Plantae|Viridiplantae|Streptophyta|Embryophyta|Tracheophyta|Spermatophytina|Magnoliopsida|Magnolianae|Piperales|Piperaceae|Piper|Piper longum	Plantae	NA	Magnoliopsida	Piperales	Piperaceae	Piper	Piper longum	NA
clean	Radix Piperis longi	Piper longum	Piper longum	97780	species	Open Tree of Life	no rank|no rank|domain|kingdom|kingdom|phylum|no rank|phylum|no rank|no rank|class|no rank|no rank|order|family|genus|species	||Eukaryota|Archaeplastida|Chloroplastida|Streptophyta|Embryophyta|Tracheophyta|Euphyllophyta|Spermatophyta|Magnoliopsida|Mesangiospermae|Magnoliidae|Piperales|Piperaceae|Piper|Piper longum	Chloroplastida	Tracheophyta	Magnoliopsida	Piperales	Piperaceae	Piper	Piper longum	NA
clean	Radix Piperis longi	Piper longum	Piper longum	3086338	species	GBIF Backbone Taxonomy	kingdom|phylum|class|order|family|genus|species	Plantae|Tracheophyta|Magnoliopsida|Piperales|Piperaceae|Piper|Piper longum	Plantae	Tracheophyta	Magnoliopsida	Piperales	Piperaceae	Piper	Piper longum	NA
clean	Nicotiana tabacum	Nicotiana tabacum	Nicotiana tabacum	165709	species	iNaturalist	kingdom|phylum|class|order|family|genus|species	Plantae|Tracheophyta|Magnoliopsida|Solanales|Solanaceae|Nicotiana|Nicotiana tabacum	Plantae	Tracheophyta	Magnoliopsida	Solanales	Solanaceae	Nicotiana	Nicotiana tabacum	NA
clean	Nicotiana tabacum	Nicotiana tabacum	Nicotiana tabacum	9361	species	VASCAN	class|subclass|superorder|order|family|subfamily|tribe|genus|species	Equisetopsida|Magnoliidae|Asteranae|Solanales|Solanaceae|Browallioideae|Nicotianeae|Nicotiana|Nicotiana tabacum	NA	NA	Equisetopsida	Solanales	Solanaceae	Nicotiana	Nicotiana tabacum	NA
clean	Nicotiana tabacum	Nicotiana tabacum	Nicotiana tabacum	4097	species	NCBI	|superkingdom|kingdom|phylum|subphylum|clade|clade|clade|clade|class|clade|clade|clade|clade|clade|clade|order|family|subfamily|tribe|genus|species	|Eukaryota|Viridiplantae|Streptophyta|Streptophytina|Embryophyta|Tracheophyta|Euphyllophyta|Spermatophyta|Magnoliopsida|Mesangiospermae||Gunneridae|Pentapetalae|||Solanales|Solanaceae|Nicotianoideae|Nicotianeae|Nicotiana|Nicotiana tabacum	Viridiplantae	Streptophyta	Magnoliopsida	Solanales	Solanaceae	Nicotiana	Nicotiana tabacum	NA
clean	Nicotiana tabacum	Nicotiana tabacum	Nicotiana tabacum	222787	species	Open Tree of Life	no rank|no rank|domain|kingdom|kingdom|phylum|no rank|phylum|no rank|no rank|class|no rank|no rank|no rank|no rank|no rank|no rank|order|family|subfamily|tribe|genus|species	||Eukaryota|Archaeplastida|Chloroplastida|Streptophyta|Embryophyta|Tracheophyta|Euphyllophyta|Spermatophyta|Magnoliopsida|Mesangiospermae||Gunneridae|Pentapetalae|||Solanales|Solanaceae|Nicotianoideae|Nicotianeae|Nicotiana|Nicotiana tabacum	Chloroplastida	Tracheophyta	Magnoliopsida	Solanales	Solanaceae	Nicotiana	Nicotiana tabacum	NA
clean	Nicotiana tabacum	Nicotiana tabacum	Nicotiana tabacum	2928774	species	GBIF Backbone Taxonomy	kingdom|phylum|class|order|family|genus|species	Plantae|Tracheophyta|Magnoliopsida|Solanales|Solanaceae|Nicotiana|Nicotiana tabacum	Plantae	Tracheophyta	Magnoliopsida	Solanales	Solanaceae	Nicotiana	Nicotiana tabacum	NA
clean	Nicotiana tabacum	Nicotiana tabacum	Nicotiana tabacum	30568	species	ITIS	kingdom|subkingdom|infrakingdom|superdivision|division|subdivision|class|superorder|order|family|genus|species	Plantae|Viridiplantae|Streptophyta|Embryophyta|Tracheophyta|Spermatophytina|Magnoliopsida|Asteranae|Solanales|Solanaceae|Nicotiana|Nicotiana tabacum	Plantae	NA	Magnoliopsida	Solanales	Solanaceae	Nicotiana	Nicotiana tabacum	NA
dirty	Rice, Bean	Phaseolus vulgaris	Phaseolus vulgaris	825707	species	Open Tree of Life	no rank|no rank|domain|kingdom|kingdom|phylum|no rank|phylum|no rank|no rank|class|no rank|no rank|no rank|no rank|no rank|no rank|order|family|subfamily|no rank|no rank|no rank|tribe|genus|species	||Eukaryota|Archaeplastida|Chloroplastida|Streptophyta|Embryophyta|Tracheophyta|Euphyllophyta|Spermatophyta|Magnoliopsida|Mesangiospermae||Gunneridae|Pentapetalae|||Fabales|Fabaceae|Papilionoideae||||Phaseoleae|Phaseolus|Phaseolus vulgaris	Chloroplastida	Tracheophyta	Magnoliopsida	Fabales	Fabaceae	Phaseolus	Phaseolus vulgaris	NA
dirty	Rice, Bean	Phaseolus vulgaris	Phaseolus vulgaris	122850	species	iNaturalist	kingdom|phylum|class|order|family|genus|species	Plantae|Tracheophyta|Magnoliopsida|Fabales|Fabaceae|Phaseolus|Phaseolus vulgaris	Plantae	Tracheophyta	Magnoliopsida	Fabales	Fabaceae	Phaseolus	Phaseolus vulgaris	NA
dirty	Rice, Bean	Phaseolus vulgaris	Phaseolus vulgaris	3885	species	NCBI	|superkingdom|kingdom|phylum|subphylum|clade|clade|clade|clade|class|clade|clade|clade|clade|clade|clade|order|family|subfamily|clade|clade|clade|tribe|genus|species	|Eukaryota|Viridiplantae|Streptophyta|Streptophytina|Embryophyta|Tracheophyta|Euphyllophyta|Spermatophyta|Magnoliopsida|Mesangiospermae||Gunneridae|Pentapetalae|||Fabales|Fabaceae|Papilionoideae||||Phaseoleae|Phaseolus|Phaseolus vulgaris	Viridiplantae	Streptophyta	Magnoliopsida	Fabales	Fabaceae	Phaseolus	Phaseolus vulgaris	NA
dirty	Rice, Bean	Phaseolus vulgaris	Phaseolus vulgaris	7515595	species	GBIF Backbone Taxonomy	kingdom|phylum|class|order|family|genus|species	Plantae|Tracheophyta|Magnoliopsida|Fabales|Fabaceae|Phaseolus|Phaseolus vulgaris	Plantae	Tracheophyta	Magnoliopsida	Fabales	Fabaceae	Phaseolus	Phaseolus vulgaris	NA
dirty	Rice, Bean	Phaseolus vulgaris	Phaseolus vulgaris	5887	species	VASCAN	class|subclass|superorder|order|family|subfamily|tribe|genus|species	Equisetopsida|Magnoliidae|Rosanae|Fabales|Fabaceae|Papilionoideae|Phaseoleae|Phaseolus|Phaseolus vulgaris	NA	NA	Equisetopsida	Fabales	Fabaceae	Phaseolus	Phaseolus vulgaris	NA
dirty	Rice, Bean	Phaseolus vulgaris	Phaseolus vulgaris	26857	species	ITIS	kingdom|subkingdom|infrakingdom|superdivision|division|subdivision|class|superorder|order|family|genus|species	Plantae|Viridiplantae|Streptophyta|Embryophyta|Tracheophyta|Spermatophytina|Magnoliopsida|Rosanae|Fabales|Fabaceae|Phaseolus|Phaseolus vulgaris	Plantae	NA	Magnoliopsida	Fabales	Fabaceae	Phaseolus	Phaseolus vulgaris	NA
dirty	Rice, Bean	Oryza sativa	Oryza sativa	41976	species	ITIS	kingdom|subkingdom|infrakingdom|superdivision|division|subdivision|class|superorder|order|family|genus|species	Plantae|Viridiplantae|Streptophyta|Embryophyta|Tracheophyta|Spermatophytina|Magnoliopsida|Lilianae|Poales|Poaceae|Oryza|Oryza sativa	Plantae	NA	Magnoliopsida	Poales	Poaceae	Oryza	Oryza sativa	NA
dirty	Rice, Bean	Oryza sativa	Oryza sativa	2703459	species	GBIF Backbone Taxonomy	kingdom|phylum|class|order|family|genus|species	Plantae|Tracheophyta|Liliopsida|Poales|Poaceae|Oryza|Oryza sativa	Plantae	Tracheophyta	Liliopsida	Poales	Poaceae	Oryza	Oryza sativa	NA
dirty	Olive	Olea europaea	Olea europaea	23729	species	Open Tree of Life	no rank|no rank|domain|kingdom|kingdom|phylum|no rank|phylum|no rank|no rank|class|no rank|no rank|no rank|no rank|no rank|no rank|order|family|tribe|genus|species	||Eukaryota|Archaeplastida|Chloroplastida|Streptophyta|Embryophyta|Tracheophyta|Euphyllophyta|Spermatophyta|Magnoliopsida|Mesangiospermae||Gunneridae|Pentapetalae|||Lamiales|Oleaceae|Oleeae|Olea|Olea europaea	Chloroplastida	Tracheophyta	Magnoliopsida	Lamiales	Oleaceae	Olea	Olea europaea	NA
dirty	Olive	Olea europaea	Olea europaea	32990	species	ITIS	kingdom|subkingdom|infrakingdom|superdivision|division|subdivision|class|superorder|order|family|genus|species	Plantae|Viridiplantae|Streptophyta|Embryophyta|Tracheophyta|Spermatophytina|Magnoliopsida|Asteranae|Lamiales|Oleaceae|Olea|Olea europaea	Plantae	NA	Magnoliopsida	Lamiales	Oleaceae	Olea	Olea europaea	NA
dirty	Olive	Olea europaea	Olea europaea	8221537	species	GBIF Backbone Taxonomy	kingdom|phylum|class|order|family|genus|species	Plantae|Tracheophyta|Magnoliopsida|Lamiales|Oleaceae|Olea|Olea europaea	Plantae	Tracheophyta	Magnoliopsida	Lamiales	Oleaceae	Olea	Olea europaea	NA
dirty	Olive	Olea europaea	Olea europaea	4146	species	NCBI	|superkingdom|kingdom|phylum|subphylum|clade|clade|clade|clade|class|clade|clade|clade|clade|clade|clade|order|family|tribe|genus|species	|Eukaryota|Viridiplantae|Streptophyta|Streptophytina|Embryophyta|Tracheophyta|Euphyllophyta|Spermatophyta|Magnoliopsida|Mesangiospermae||Gunneridae|Pentapetalae|||Lamiales|Oleaceae|Oleeae|Olea|Olea europaea	Viridiplantae	Streptophyta	Magnoliopsida	Lamiales	Oleaceae	Olea	Olea europaea	NA
dirty	Olive	Olea europaea	Olea europaea	57140	species	iNaturalist	kingdom|phylum|class|order|family|genus|species	Plantae|Tracheophyta|Magnoliopsida|Lamiales|Oleaceae|Olea|Olea europaea	Plantae	Tracheophyta	Magnoliopsida	Lamiales	Oleaceae	Olea	Olea europaea	NA
dirty	African olive	Olea europaea	Olea europaea	23729	species	Open Tree of Life	no rank|no rank|domain|kingdom|kingdom|phylum|no rank|phylum|no rank|no rank|class|no rank|no rank|no rank|no rank|no rank|no rank|order|family|tribe|genus|species	||Eukaryota|Archaeplastida|Chloroplastida|Streptophyta|Embryophyta|Tracheophyta|Euphyllophyta|Spermatophyta|Magnoliopsida|Mesangiospermae||Gunneridae|Pentapetalae|||Lamiales|Oleaceae|Oleeae|Olea|Olea europaea	Chloroplastida	Tracheophyta	Magnoliopsida	Lamiales	Oleaceae	Olea	Olea europaea	NA
dirty	African olive	Olea europaea	Olea europaea	32990	species	ITIS	kingdom|subkingdom|infrakingdom|superdivision|division|subdivision|class|superorder|order|family|genus|species	Plantae|Viridiplantae|Streptophyta|Embryophyta|Tracheophyta|Spermatophytina|Magnoliopsida|Asteranae|Lamiales|Oleaceae|Olea|Olea europaea	Plantae	NA	Magnoliopsida	Lamiales	Oleaceae	Olea	Olea europaea	NA
dirty	African olive	Olea europaea	Olea europaea	8221537	species	GBIF Backbone Taxonomy	kingdom|phylum|class|order|family|genus|species	Plantae|Tracheophyta|Magnoliopsida|Lamiales|Oleaceae|Olea|Olea europaea	Plantae	Tracheophyta	Magnoliopsida	Lamiales	Oleaceae	Olea	Olea europaea	NA
dirty	African olive	Olea europaea	Olea europaea	4146	species	NCBI	|superkingdom|kingdom|phylum|subphylum|clade|clade|clade|clade|class|clade|clade|clade|clade|clade|clade|order|family|tribe|genus|species	|Eukaryota|Viridiplantae|Streptophyta|Streptophytina|Embryophyta|Tracheophyta|Euphyllophyta|Spermatophyta|Magnoliopsida|Mesangiospermae||Gunneridae|Pentapetalae|||Lamiales|Oleaceae|Oleeae|Olea|Olea europaea	Viridiplantae	Streptophyta	Magnoliopsida	Lamiales	Oleaceae	Olea	Olea europaea	NA
dirty	African olive	Olea europaea	Olea europaea	57140	species	iNaturalist	kingdom|phylum|class|order|family|genus|species	Plantae|Tracheophyta|Magnoliopsida|Lamiales|Oleaceae|Olea|Olea europaea	Plantae	Tracheophyta	Magnoliopsida	Lamiales	Oleaceae	Olea	Olea europaea	NA
clean	Iris	Iris	Iris	2748017	genus	GBIF Backbone Taxonomy	kingdom|phylum|class|order|family|genus	Plantae|Tracheophyta|Liliopsida|Asparagales|Iridaceae|Iris	Plantae	Tracheophyta	Liliopsida	Asparagales	Iridaceae	Iris	NA	NA
clean	Iris	Iris	Iris	1289	genus	VASCAN	class|subclass|superorder|order|family|subfamily|tribe|genus	Equisetopsida|Magnoliidae|Lilianae|Asparagales|Iridaceae|Iridoideae|Irideae|Iris	NA	NA	Equisetopsida	Asparagales	Iridaceae	Iris	NA	NA
clean	Iris	Iris	Iris	43191	genus	ITIS	kingdom|subkingdom|infrakingdom|superdivision|division|subdivision|class|superorder|order|family|genus	Plantae|Viridiplantae|Streptophyta|Embryophyta|Tracheophyta|Spermatophytina|Magnoliopsida|Lilianae|Asparagales|Iridaceae|Iris	Plantae	NA	Magnoliopsida	Asparagales	Iridaceae	Iris	NA	NA
clean	Iris	Iris	Iris	26378	genus	NCBI	|superkingdom|kingdom|phylum|subphylum|clade|clade|clade|clade|class|clade|clade|subclass|order|family|subfamily|tribe|genus	|Eukaryota|Viridiplantae|Streptophyta|Streptophytina|Embryophyta|Tracheophyta|Euphyllophyta|Spermatophyta|Magnoliopsida|Mesangiospermae|Liliopsida|Petrosaviidae|Asparagales|Iridaceae|Iridoideae|Irideae|Iris	Viridiplantae	Streptophyta	Magnoliopsida	Asparagales	Iridaceae	Iris	NA	NA
clean	Iris	Iris	Iris	229529	genus	Open Tree of Life	no rank|no rank|domain|kingdom|kingdom|phylum|no rank|phylum|no rank|no rank|class|no rank|class|subclass|order|family|subfamily|tribe|genus	||Eukaryota|Archaeplastida|Chloroplastida|Streptophyta|Embryophyta|Tracheophyta|Euphyllophyta|Spermatophyta|Magnoliopsida|Mesangiospermae|Liliopsida|Petrosaviidae|Asparagales|Iridaceae|Iridoideae|Irideae|Iris	Chloroplastida	Tracheophyta	Liliopsida	Asparagales	Iridaceae	Iris	NA	NA
clean	Ficus	Ficus	Ficus	2301388	genus	GBIF Backbone Taxonomy	kingdom|phylum|class|order|family|genus	Animalia|Mollusca|Gastropoda|Littorinimorpha|Ficidae|Ficus	Animalia	Mollusca	Gastropoda	Littorinimorpha	Ficidae	Ficus	NA	NA
clean	Ficus	Ficus	Ficus	73159	genus	ITIS	kingdom|subkingdom|infrakingdom|superphylum|phylum|class|order|family|genus	Animalia|Bilateria|Protostomia|Lophozoa|Mollusca|Gastropoda|Neotaenioglossa|Ficidae|Ficus	Animalia	Mollusca	Gastropoda	Neotaenioglossa	Ficidae	Ficus	NA	NA
clean	Ficus	Ficus	Ficus	1068336	genus	Open Tree of Life	no rank|no rank|domain|no rank|no rank|kingdom|no rank|no rank|no rank|no rank|phylum|class|subclass|order|superfamily|family|genus	||Eukaryota|Opisthokonta|Holozoa|Metazoa|Eumetazoa|Bilateria|Protostomia|Lophotrochozoa|Mollusca|Gastropoda|Caenogastropoda|Littorinimorpha|Ficoidea|Ficidae|Ficus	Metazoa	Mollusca	Gastropoda	Littorinimorpha	Ficidae	Ficus	NA	NA
clean	Ficus	Ficus	Ficus	319808	genus	NCBI	|superkingdom|clade|kingdom|clade|clade|clade|clade|clade|phylum|class|subclass|order|superfamily|family|genus	|Eukaryota|Opisthokonta|Metazoa|Eumetazoa|Bilateria|Protostomia|Spiralia|Lophotrochozoa|Mollusca|Gastropoda|Caenogastropoda|Littorinimorpha|Tonnoidea|Ficidae|Ficus	Metazoa	Mollusca	Gastropoda	Littorinimorpha	Ficidae	Ficus	NA	NA
clean	Kiwi	Kiwi	Kiwi	10035239	genus	GBIF Backbone Taxonomy	kingdom|phylum|class|order|family|genus	Animalia|Chordata|Aves|Apterygiformes|Apterygidae|Kiwi	Animalia	Chordata	Aves	Apterygiformes	Apterygidae	Kiwi	NA	NA
clean	Rose apple	Syzygium	Syzygium	3029010	genus	GBIF Backbone Taxonomy	kingdom|phylum|class|order|family|genus	Plantae|Tracheophyta|Magnoliopsida|Myrtales|Myrtaceae|Syzygium	Plantae	Tracheophyta	Magnoliopsida	Myrtales	Myrtaceae	Syzygium	NA	NA
clean	Rose apple	Syzygium	Syzygium	27274	genus	ITIS	kingdom|subkingdom|infrakingdom|superdivision|division|subdivision|class|superorder|order|family|genus	Plantae|Viridiplantae|Streptophyta|Embryophyta|Tracheophyta|Spermatophytina|Magnoliopsida|Rosanae|Myrtales|Myrtaceae|Syzygium	Plantae	NA	Magnoliopsida	Myrtales	Myrtaceae	Syzygium	NA	NA
clean	Rose apple	Syzygium	Syzygium	178174	genus	NCBI	|superkingdom|kingdom|phylum|subphylum|clade|clade|clade|clade|class|clade|clade|clade|clade|clade|clade|order|family|subfamily|tribe|genus	|Eukaryota|Viridiplantae|Streptophyta|Streptophytina|Embryophyta|Tracheophyta|Euphyllophyta|Spermatophyta|Magnoliopsida|Mesangiospermae||Gunneridae|Pentapetalae|||Myrtales|Myrtaceae|Myrtoideae|Syzygieae|Syzygium	Viridiplantae	Streptophyta	Magnoliopsida	Myrtales	Myrtaceae	Syzygium	NA	NA
clean	Rose apple	Syzygium	Syzygium	934540	genus	Open Tree of Life	no rank|no rank|domain|kingdom|kingdom|phylum|no rank|phylum|no rank|no rank|class|no rank|no rank|no rank|no rank|no rank|no rank|order|family|subfamily|tribe|genus	||Eukaryota|Archaeplastida|Chloroplastida|Streptophyta|Embryophyta|Tracheophyta|Euphyllophyta|Spermatophyta|Magnoliopsida|Mesangiospermae||Gunneridae|Pentapetalae|||Myrtales|Myrtaceae|Myrtoideae|Syzygieae|Syzygium	Chloroplastida	Tracheophyta	Magnoliopsida	Myrtales	Myrtaceae	Syzygium	NA	NA
clean	Apple	Malus	Malus	208026	genus	Open Tree of Life	no rank|no rank|domain|kingdom|kingdom|phylum|no rank|phylum|no rank|no rank|class|no rank|no rank|no rank|no rank|no rank|no rank|order|family|subfamily|tribe|genus	||Eukaryota|Archaeplastida|Chloroplastida|Streptophyta|Embryophyta|Tracheophyta|Euphyllophyta|Spermatophyta|Magnoliopsida|Mesangiospermae||Gunneridae|Pentapetalae|||Rosales|Rosaceae|Amygdaloideae|Maleae|Malus	Chloroplastida	Tracheophyta	Magnoliopsida	Rosales	Rosaceae	Malus	NA	NA
clean	Apple	Malus	Malus	1392	genus	VASCAN	class|subclass|superorder|order|family|subfamily|tribe|genus	Equisetopsida|Magnoliidae|Rosanae|Rosales|Rosaceae|Spiraeoideae|Pyreae|Malus	NA	NA	Equisetopsida	Rosales	Rosaceae	Malus	NA	NA
clean	Apple	Malus	Malus	25254	genus	ITIS	kingdom|subkingdom|infrakingdom|superdivision|division|subdivision|class|superorder|order|family|genus	Plantae|Viridiplantae|Streptophyta|Embryophyta|Tracheophyta|Spermatophytina|Magnoliopsida|Rosanae|Rosales|Rosaceae|Malus	Plantae	NA	Magnoliopsida	Rosales	Rosaceae	Malus	NA	NA
clean	Apple	Malus	Malus	3749	genus	NCBI	|superkingdom|kingdom|phylum|subphylum|clade|clade|clade|clade|class|clade|clade|clade|clade|clade|clade|order|family|subfamily|tribe|genus	|Eukaryota|Viridiplantae|Streptophyta|Streptophytina|Embryophyta|Tracheophyta|Euphyllophyta|Spermatophyta|Magnoliopsida|Mesangiospermae||Gunneridae|Pentapetalae|||Rosales|Rosaceae|Amygdaloideae|Maleae|Malus	Viridiplantae	Streptophyta	Magnoliopsida	Rosales	Rosaceae	Malus	NA	NA
clean	Apple	Malus	Malus	3001068	genus	GBIF Backbone Taxonomy	kingdom|phylum|class|order|family|genus	Plantae|Tracheophyta|Magnoliopsida|Rosales|Rosaceae|Malus	Plantae	Tracheophyta	Magnoliopsida	Rosales	Rosaceae	Malus	NA	NA
clean	Piper	Piper	Piper	3075433	genus	GBIF Backbone Taxonomy	kingdom|phylum|class|order|family|genus	Plantae|Tracheophyta|Magnoliopsida|Piperales|Piperaceae|Piper	Plantae	Tracheophyta	Magnoliopsida	Piperales	Piperaceae	Piper	NA	NA
clean	Piper	Piper	Piper	283089	genus	Open Tree of Life	no rank|no rank|domain|kingdom|kingdom|phylum|no rank|phylum|no rank|no rank|class|no rank|no rank|order|family|genus	||Eukaryota|Archaeplastida|Chloroplastida|Streptophyta|Embryophyta|Tracheophyta|Euphyllophyta|Spermatophyta|Magnoliopsida|Mesangiospermae|Magnoliidae|Piperales|Piperaceae|Piper	Chloroplastida	Tracheophyta	Magnoliopsida	Piperales	Piperaceae	Piper	NA	NA
clean	Piper	Piper	Piper	18301	genus	ITIS	kingdom|subkingdom|infrakingdom|superdivision|division|subdivision|class|superorder|order|family|genus	Plantae|Viridiplantae|Streptophyta|Embryophyta|Tracheophyta|Spermatophytina|Magnoliopsida|Magnolianae|Piperales|Piperaceae|Piper	Plantae	NA	Magnoliopsida	Piperales	Piperaceae	Piper	NA	NA
clean	Piper	Piper	Piper	13215	genus	NCBI	|superkingdom|kingdom|phylum|subphylum|clade|clade|clade|clade|class|clade|clade|order|family|genus	|Eukaryota|Viridiplantae|Streptophyta|Streptophytina|Embryophyta|Tracheophyta|Euphyllophyta|Spermatophyta|Magnoliopsida|Mesangiospermae|Magnoliidae|Piperales|Piperaceae|Piper	Viridiplantae	Streptophyta	Magnoliopsida	Piperales	Piperaceae	Piper	NA	NA
clean	Piperis	Piperis	Piperis	4614619	genus	Open Tree of Life	no rank|no rank|domain|no rank|no rank|kingdom|no rank|no rank|no rank|no rank|no rank|phylum|no rank|no rank|subphylum|class|no rank|subclass|infraclass|cohort|order|suborder|infraorder|superfamily|family|genus	||Eukaryota|Opisthokonta|Holozoa|Metazoa|Eumetazoa|Bilateria|Protostomia|Ecdysozoa|Panarthropoda|Arthropoda|Mandibulata|Pancrustacea|Hexapoda|Insecta|Dicondylia|Pterygota|Neoptera|Holometabola|Coleoptera|Polyphaga|Cucujiformia|Curculionoidea|Curculionidae|Piperis	Metazoa	Arthropoda	Insecta	Coleoptera	Curculionidae	Piperis	NA	NA
clean	Piperis	Piperis	Piperis	1177663	genus	GBIF Backbone Taxonomy	kingdom|phylum|class|order|family|genus	Animalia|Arthropoda|Insecta|Coleoptera|Curculionidae|Piperis	Animalia	Arthropoda	Insecta	Coleoptera	Curculionidae	Piperis	NA	NA
dirty	Rose, apple	Malus	Malus	208026	genus	Open Tree of Life	no rank|no rank|domain|kingdom|kingdom|phylum|no rank|phylum|no rank|no rank|class|no rank|no rank|no rank|no rank|no rank|no rank|order|family|subfamily|tribe|genus	||Eukaryota|Archaeplastida|Chloroplastida|Streptophyta|Embryophyta|Tracheophyta|Euphyllophyta|Spermatophyta|Magnoliopsida|Mesangiospermae||Gunneridae|Pentapetalae|||Rosales|Rosaceae|Amygdaloideae|Maleae|Malus	Chloroplastida	Tracheophyta	Magnoliopsida	Rosales	Rosaceae	Malus	NA	NA
dirty	Rose, apple	Malus	Malus	1392	genus	VASCAN	class|subclass|superorder|order|family|subfamily|tribe|genus	Equisetopsida|Magnoliidae|Rosanae|Rosales|Rosaceae|Spiraeoideae|Pyreae|Malus	NA	NA	Equisetopsida	Rosales	Rosaceae	Malus	NA	NA
dirty	Rose, apple	Malus	Malus	25254	genus	ITIS	kingdom|subkingdom|infrakingdom|superdivision|division|subdivision|class|superorder|order|family|genus	Plantae|Viridiplantae|Streptophyta|Embryophyta|Tracheophyta|Spermatophytina|Magnoliopsida|Rosanae|Rosales|Rosaceae|Malus	Plantae	NA	Magnoliopsida	Rosales	Rosaceae	Malus	NA	NA
dirty	Rose, apple	Malus	Malus	3749	genus	NCBI	|superkingdom|kingdom|phylum|subphylum|clade|clade|clade|clade|class|clade|clade|clade|clade|clade|clade|order|family|subfamily|tribe|genus	|Eukaryota|Viridiplantae|Streptophyta|Streptophytina|Embryophyta|Tracheophyta|Euphyllophyta|Spermatophyta|Magnoliopsida|Mesangiospermae||Gunneridae|Pentapetalae|||Rosales|Rosaceae|Amygdaloideae|Maleae|Malus	Viridiplantae	Streptophyta	Magnoliopsida	Rosales	Rosaceae	Malus	NA	NA
dirty	Rose, apple	Malus	Malus	3001068	genus	GBIF Backbone Taxonomy	kingdom|phylum|class|order|family|genus	Plantae|Tracheophyta|Magnoliopsida|Rosales|Rosaceae|Malus	Plantae	Tracheophyta	Magnoliopsida	Rosales	Rosaceae	Malus	NA	NA
